!table
!version 500
!charset WindowsLatin1

Definition Table
  Type ODBC
begin_metadata
"\IsReadOnly" = "FALSE"
"\MapInfo" = ""
"\MapInfo\TableID" = "441159ed-1ef7-481c-b36f-943d1586581b"
"\DATALINK" = ""
"\DATALINK\Query" = "Select *  From `sigjogjatourist`.`jalan`"
"\DATALINK\ConnectionString" = "DSN=tabelSIG"
"\DATALINK\ToolKit" = "ODBC"
"\CACHE" = "ON"
"\MBRSEARCH" = "ON"
end_metadata
