!table
!version 300
!charset WindowsLatin1

Definition Table
  Type NATIVE Charset "WindowsLatin1"
  Fields 5
    namalokasi Char (20) ;
    Profile Char (254) ;
    jambuka Char (50) ;
    website Char (50) ;
    transportasi Char (50) ;
begin_metadata
"\IsReadOnly" = "FALSE"
"\MapInfo" = ""
"\MapInfo\TableID" = "5251ebf4-ad1a-423f-83b5-ecba3333e4be"
end_metadata
