!table
!version 300
!charset WindowsLatin1

Definition Table
  Type NATIVE Charset "WindowsLatin1"
  Fields 1
    nama_lokasi Char (50) ;
begin_metadata
"\IsReadOnly" = "FALSE"
"\MapInfo" = ""
"\MapInfo\TableID" = "cc5e4f31-12b9-4eff-9ff2-785fd5f49c26"
end_metadata
